﻿{
  "$schema": "http://schemastore.org/schemas/json/webjob-publish-settings.json",
  "webJobName": "PickrPaymentProd",
  "startTime": "2016-02-29T22:00:00+07:00",
  "endTime": null,
  "jobRecurrenceFrequency": "Day",
  "interval": 1,
  "runMode": "Scheduled"
}